%YAML 1.1
%TAG !u! tag:unity3d.com,2011:
--- !u!74 &7400000
AnimationClip:
  m_ObjectHideFlags: 0
  m_PrefabParentObject: {fileID: 0}
  m_PrefabInternal: {fileID: 0}
  m_Name: Descolgar
  serializedVersion: 6
  m_Legacy: 0
  m_Compressed: 0
  m_UseHighQualityCurve: 1
  m_RotationCurves: []
  m_CompressedRotationCurves: []
  m_EulerCurves: []
  m_PositionCurves: []
  m_ScaleCurves: []
  m_FloatCurves: []
  m_PPtrCurves:
  - curve:
    - time: 0
      value: {fileID: 21300000, guid: 4292dfbac51ebd24b8fa49427792da45, type: 3}
    - time: 0.033333335
      value: {fileID: 21300000, guid: 8cd6af06a422c8b498cb3f12c6dc561d, type: 3}
    - time: 0.06666667
      value: {fileID: 21300000, guid: 049dc3d630580684bb38c64b54425e6a, type: 3}
    - time: 0.1
      value: {fileID: 21300000, guid: a8e833845893d934290e4b74c4139a7f, type: 3}
    - time: 0.13333334
      value: {fileID: 21300000, guid: b2ea253fb2aab2e4a8867ea27806ac6e, type: 3}
    - time: 0.16666667
      value: {fileID: 21300000, guid: 826f403d08a925743aa4ef9d45f5458b, type: 3}
    - time: 0.2
      value: {fileID: 21300000, guid: b6524159c8ad1f14f9f797d30e1dd7b5, type: 3}
    - time: 0.23333333
      value: {fileID: 21300000, guid: 25ff9e11013ea6943a709f5574e1cb5e, type: 3}
    - time: 0.26666668
      value: {fileID: 21300000, guid: 59c49e688ad4d9a4f9ef34742f813d6e, type: 3}
    - time: 0.3
      value: {fileID: 21300000, guid: 72b69899129553b429781ceeb54f3248, type: 3}
    - time: 0.33333334
      value: {fileID: 21300000, guid: d639baf7bbe4a884eb4e5be881640205, type: 3}
    - time: 0.36666667
      value: {fileID: 21300000, guid: 75a041aaf94603a4181e2e4af3f43c9d, type: 3}
    - time: 0.4
      value: {fileID: 21300000, guid: 33e6b547c316b764690d77e78789f7c3, type: 3}
    - time: 0.43333334
      value: {fileID: 21300000, guid: b1a8af457144a354093b2c34c0964cfd, type: 3}
    - time: 0.46666667
      value: {fileID: 21300000, guid: 07a44f1fbfc73344ba23de128a32724e, type: 3}
    - time: 0.5
      value: {fileID: 21300000, guid: 1f7b8ae306f2e234ca3bc26855eb379b, type: 3}
    - time: 0.53333336
      value: {fileID: 21300000, guid: 3988914a9f34c5d4f9e745d71fe6bd25, type: 3}
    - time: 0.56666666
      value: {fileID: 21300000, guid: 1378bc8ee1f732a49a1c808cef5f4757, type: 3}
    - time: 0.6
      value: {fileID: 21300000, guid: b619165931a45714e8217776434dc686, type: 3}
    - time: 0.6333333
      value: {fileID: 21300000, guid: dd3fa1eb147241b47bfffd878685778b, type: 3}
    - time: 0.6666667
      value: {fileID: 21300000, guid: 3ebd7b60e804a6742b7d2b78913c2be5, type: 3}
    - time: 0.7
      value: {fileID: 21300000, guid: 435becd0950e7ce4aa4df37212d9f2ab, type: 3}
    - time: 0.73333335
      value: {fileID: 21300000, guid: 985c79161dedcbc47b50c11bf3f91829, type: 3}
    - time: 0.76666665
      value: {fileID: 21300000, guid: 66ba6cee047e6d549842b50764381953, type: 3}
    - time: 0.8
      value: {fileID: 21300000, guid: 3709ae39bbfac3c428d7fce596372ad9, type: 3}
    - time: 0.8333333
      value: {fileID: 21300000, guid: 4d33bbf90612be748b38fdfdd20837ef, type: 3}
    - time: 0.8666667
      value: {fileID: 21300000, guid: 19c1606f4a0abe849b9da7363a6e100d, type: 3}
    - time: 0.9
      value: {fileID: 21300000, guid: 6b6348811deeb224bb6600f74794062c, type: 3}
    - time: 0.93333334
      value: {fileID: 21300000, guid: d2ae3589394503a4fbebca489eb4b907, type: 3}
    attribute: m_Sprite
    path: AnimacionCortaCircuitos
    classID: 114
    script: {fileID: -765806418, guid: f70555f144d8491a825f0804e09c671c, type: 3}
  m_SampleRate: 30
  m_WrapMode: 0
  m_Bounds:
    m_Center: {x: 0, y: 0, z: 0}
    m_Extent: {x: 0, y: 0, z: 0}
  m_ClipBindingConstant:
    genericBindings:
    - serializedVersion: 2
      path: 3773665566
      attribute: 2015549526
      script: {fileID: -765806418, guid: f70555f144d8491a825f0804e09c671c, type: 3}
      typeID: 114
      customType: 0
      isPPtrCurve: 1
    pptrCurveMapping:
    - {fileID: 21300000, guid: 4292dfbac51ebd24b8fa49427792da45, type: 3}
    - {fileID: 21300000, guid: 8cd6af06a422c8b498cb3f12c6dc561d, type: 3}
    - {fileID: 21300000, guid: 049dc3d630580684bb38c64b54425e6a, type: 3}
    - {fileID: 21300000, guid: a8e833845893d934290e4b74c4139a7f, type: 3}
    - {fileID: 21300000, guid: b2ea253fb2aab2e4a8867ea27806ac6e, type: 3}
    - {fileID: 21300000, guid: 826f403d08a925743aa4ef9d45f5458b, type: 3}
    - {fileID: 21300000, guid: b6524159c8ad1f14f9f797d30e1dd7b5, type: 3}
    - {fileID: 21300000, guid: 25ff9e11013ea6943a709f5574e1cb5e, type: 3}
    - {fileID: 21300000, guid: 59c49e688ad4d9a4f9ef34742f813d6e, type: 3}
    - {fileID: 21300000, guid: 72b69899129553b429781ceeb54f3248, type: 3}
    - {fileID: 21300000, guid: d639baf7bbe4a884eb4e5be881640205, type: 3}
    - {fileID: 21300000, guid: 75a041aaf94603a4181e2e4af3f43c9d, type: 3}
    - {fileID: 21300000, guid: 33e6b547c316b764690d77e78789f7c3, type: 3}
    - {fileID: 21300000, guid: b1a8af457144a354093b2c34c0964cfd, type: 3}
    - {fileID: 21300000, guid: 07a44f1fbfc73344ba23de128a32724e, type: 3}
    - {fileID: 21300000, guid: 1f7b8ae306f2e234ca3bc26855eb379b, type: 3}
    - {fileID: 21300000, guid: 3988914a9f34c5d4f9e745d71fe6bd25, type: 3}
    - {fileID: 21300000, guid: 1378bc8ee1f732a49a1c808cef5f4757, type: 3}
    - {fileID: 21300000, guid: b619165931a45714e8217776434dc686, type: 3}
    - {fileID: 21300000, guid: dd3fa1eb147241b47bfffd878685778b, type: 3}
    - {fileID: 21300000, guid: 3ebd7b60e804a6742b7d2b78913c2be5, type: 3}
    - {fileID: 21300000, guid: 435becd0950e7ce4aa4df37212d9f2ab, type: 3}
    - {fileID: 21300000, guid: 985c79161dedcbc47b50c11bf3f91829, type: 3}
    - {fileID: 21300000, guid: 66ba6cee047e6d549842b50764381953, type: 3}
    - {fileID: 21300000, guid: 3709ae39bbfac3c428d7fce596372ad9, type: 3}
    - {fileID: 21300000, guid: 4d33bbf90612be748b38fdfdd20837ef, type: 3}
    - {fileID: 21300000, guid: 19c1606f4a0abe849b9da7363a6e100d, type: 3}
    - {fileID: 21300000, guid: 6b6348811deeb224bb6600f74794062c, type: 3}
    - {fileID: 21300000, guid: d2ae3589394503a4fbebca489eb4b907, type: 3}
  m_AnimationClipSettings:
    serializedVersion: 2
    m_AdditiveReferencePoseClip: {fileID: 0}
    m_AdditiveReferencePoseTime: 0
    m_StartTime: 0
    m_StopTime: 0.9666667
    m_OrientationOffsetY: 0
    m_Level: 0
    m_CycleOffset: 0
    m_HasAdditiveReferencePose: 0
    m_LoopTime: 0
    m_LoopBlend: 0
    m_LoopBlendOrientation: 0
    m_LoopBlendPositionY: 0
    m_LoopBlendPositionXZ: 0
    m_KeepOriginalOrientation: 0
    m_KeepOriginalPositionY: 1
    m_KeepOriginalPositionXZ: 0
    m_HeightFromFeet: 0
    m_Mirror: 0
  m_EditorCurves: []
  m_EulerEditorCurves: []
  m_HasGenericRootTransform: 0
  m_HasMotionFloatCurves: 0
  m_GenerateMotionCurves: 0
  m_Events: []
